************* Module tests
W: 15, 0: Wildcard import integrals (wildcard-import)


Report
======
57 statements analysed.

Statistics by type
------------------

+---------+-------+-----------+-----------+------------+---------+
|type     |number |old number |difference |%documented |%badname |
+=========+=======+===========+===========+============+=========+
|module   |1      |0          |+1.00      |100.00      |0.00     |
+---------+-------+-----------+-----------+------------+---------+
|class    |0      |0          |=          |0           |0        |
+---------+-------+-----------+-----------+------------+---------+
|method   |0      |0          |=          |0           |0        |
+---------+-------+-----------+-----------+------------+---------+
|function |3      |0          |+3.00      |100.00      |100.00   |
+---------+-------+-----------+-----------+------------+---------+



Raw metrics
-----------

+----------+-------+------+---------+-----------+
|type      |number |%     |previous |difference |
+==========+=======+======+=========+===========+
|code      |57     |50.44 |57       |=          |
+----------+-------+------+---------+-----------+
|docstring |12     |10.62 |12       |=          |
+----------+-------+------+---------+-----------+
|comment   |35     |30.97 |35       |=          |
+----------+-------+------+---------+-----------+
|empty     |9      |7.96  |9        |=          |
+----------+-------+------+---------+-----------+



Duplication
-----------

+-------------------------+------+---------+-----------+
|                         |now   |previous |difference |
+=========================+======+=========+===========+
|nb duplicated lines      |0     |0        |=          |
+-------------------------+------+---------+-----------+
|percent duplicated lines |0.000 |0.000    |=          |
+-------------------------+------+---------+-----------+



Messages by category
--------------------

+-----------+-------+---------+-----------+
|type       |number |previous |difference |
+===========+=======+=========+===========+
|convention |0      |0        |=          |
+-----------+-------+---------+-----------+
|refactor   |0      |0        |=          |
+-----------+-------+---------+-----------+
|warning    |1      |0        |+1.00      |
+-----------+-------+---------+-----------+
|error      |0      |0        |=          |
+-----------+-------+---------+-----------+



Messages
--------

+----------------+------------+
|message id      |occurrences |
+================+============+
|wildcard-import |1           |
+----------------+------------+



Global evaluation
-----------------
Your code has been rated at 9.82/10 (previous run: 10.00/10, -0.18)
So close to being perfect...

